(kicad_pcb (version 20211014) (generator pcbnew)

  (general
    (thickness 1.6)
  )

  (paper "A4")
  (layers
    (0 "F.Cu" signal)
    (31 "B.Cu" signal)
    (32 "B.Adhes" user "B.Adhesive")
    (33 "F.Adhes" user "F.Adhesive")
    (34 "B.Paste" user)
    (35 "F.Paste" user)
    (36 "B.SilkS" user "B.Silkscreen")
    (37 "F.SilkS" user "F.Silkscreen")
    (38 "B.Mask" user)
    (39 "F.Mask" user)
    (40 "Dwgs.User" user "User.Drawings")
    (41 "Cmts.User" user "User.Comments")
    (42 "Eco1.User" user "User.Eco1")
    (43 "Eco2.User" user "User.Eco2")
    (44 "Edge.Cuts" user)
    (45 "Margin" user)
    (46 "B.CrtYd" user "B.Courtyard")
    (47 "F.CrtYd" user "F.Courtyard")
    (48 "B.Fab" user)
    (49 "F.Fab" user)
    (50 "User.1" user)
    (51 "User.2" user)
    (52 "User.3" user)
    (53 "User.4" user)
    (54 "User.5" user)
    (55 "User.6" user)
    (56 "User.7" user)
    (57 "User.8" user)
    (58 "User.9" user)
  )

  (setup
    (pad_to_mask_clearance 0)
    (aux_axis_origin 146.9 104.1)
    (grid_origin 146.9 104.1)
    (pcbplotparams
      (layerselection 0x00010fc_ffffffff)
      (disableapertmacros false)
      (usegerberextensions false)
      (usegerberattributes true)
      (usegerberadvancedattributes true)
      (creategerberjobfile true)
      (svguseinch false)
      (svgprecision 6)
      (excludeedgelayer true)
      (plotframeref false)
      (viasonmask false)
      (mode 1)
      (useauxorigin false)
      (hpglpennumber 1)
      (hpglpenspeed 20)
      (hpglpendiameter 15.000000)
      (dxfpolygonmode true)
      (dxfimperialunits true)
      (dxfusepcbnewfont true)
      (psnegative false)
      (psa4output false)
      (plotreference true)
      (plotvalue true)
      (plotinvisibletext false)
      (sketchpadsonfab false)
      (subtractmaskfromsilk false)
      (outputformat 1)
      (mirror false)
      (drillshape 0)
      (scaleselection 1)
      (outputdirectory "_output")
    )
  )

  (net 0 "")

  (gr_line (start 153.4 110.6) (end 153.4 97.6) (layer "Edge.Cuts") (width 0.1) (tstamp 09f8b05c-2c3c-4f72-bbc5-579019da867a))
  (gr_line (start 141.4 96.6) (end 152.4 96.6) (layer "Edge.Cuts") (width 0.1) (tstamp 0e800c38-0bb1-43c7-9b74-798f7e8eddae))
  (gr_line (start 140.4 110.6) (end 140.4 97.6) (layer "Edge.Cuts") (width 0.1) (tstamp 40f713a6-600a-492d-8d01-cdf9ca100815))
  (gr_arc (start 153.4 110.6) (mid 153.107107 111.307107) (end 152.4 111.6) (layer "Edge.Cuts") (width 0.1) (tstamp 64a24460-cc6a-45e1-93c5-47b5b5afcac7))
  (gr_line (start 141.4 111.6) (end 152.4 111.6) (layer "Edge.Cuts") (width 0.1) (tstamp 6afcfe7b-1a32-48bd-95fd-32d3eb728d5d))
  (gr_arc (start 152.4 96.6) (mid 153.107107 96.892893) (end 153.4 97.6) (layer "Edge.Cuts") (width 0.1) (tstamp 99a36e40-f2f1-4d91-b4cc-b9e856ba4976))
  (gr_arc (start 141.4 111.6) (mid 140.692893 111.307107) (end 140.4 110.6) (layer "Edge.Cuts") (width 0.1) (tstamp a1617c62-1dd4-4648-9f10-20de9e9993c9))
  (gr_arc (start 140.4 97.6) (mid 140.692893 96.892893) (end 141.4 96.6) (layer "Edge.Cuts") (width 0.1) (tstamp d2e95043-6d52-4f5f-b034-5f0d41906096))
  (gr_text "JLCJLCJLCJLC" (at 146.9 108.47) (layer "B.SilkS") (tstamp 02039bef-b458-4132-89f0-170c520f0743)
    (effects (font (size 1 1) (thickness 0.15)) (justify mirror))
  )
  (gr_text "Data" (at 146.9 104.1) (layer "F.SilkS") (tstamp 5c99625c-120f-4e9c-9bdf-548544599b46)
    (effects (font (size 2 2) (thickness 0.3)))
  )

)
